MLR: Model Selection and Validation
…
The only worry is the expenditures residual plot where, again, we see Alaska.

In Chapter 10, we will learn about leverage values, and we see that Alaska has a very high Cook’s distance (.cooksd) and a high leverage (.hat).

a_rich %>%
  bind_cols(select(sat, State)) %>%
  select(State, .cooksd, .hat) %>%
  arrange(desc(.cooksd))

## # A tibble: 50 × 3
##    State         .cooksd   .hat
##    <fct>           <dbl>  <dbl>
##  1 Alaska         1.60   0.572 
##  2 Louisiana      0.207  0.345 
##  3 Mississippi    0.152  0.147 
##  4 SouthCarolina  0.146  0.129 
##  5 Tennessee      0.143  0.207 
##  6 WestVirginia   0.0880 0.169 
##  7 NewHampshire   0.0728 0.0913
##  8 NorthCarolina  0.0437 0.102 
##  9 Indiana        0.0345 0.198 
## 10 Illinois       0.0339 0.106 
## # … with 40 more rows
…
