Multiple Linear Regression I
…
Let \(\mathbf{X}_h\) denote the \(m\times p\) matrix of the predictor values at \(m\) new observations.

The mean value of the response at these new observations is \[
  E[\mathbf{y}_h] = \mathbf{X}_h\mathbf{\beta}
  \]

We can estimate this with \[
  \hat{\mathbf{y}}_h = \mathbf{X}_h\hat{\mathbf{\beta}} = \mathbf{X}_h(\mathbf{X}^T\mathbf{X})^{-1}\mathbf{X}^T\mathbf{Y}
  \]

If \(\mathbf{X}_h = \mathbf{X}\), then we can use augment() from {broom} to obtain the fitted value

augment(lmout)

## # A tibble: 21 × 9
##    sales young  disp .fitted  .resid   .hat .sigma   .cooksd .std.resid
##    <dbl> <dbl> <dbl>   <dbl>   <dbl>  <dbl>  <dbl>     <dbl>      <dbl>
##  1  174.  68.5  16.7    187. -12.8   0.122   10.8  0.0710       -1.24  
##  2  164.  45.2  16.8    154.  10.2   0.104   11.0  0.0370        0.976 
##  3  244.  91.3  18.2    234.   9.80  0.174   11.0  0.0673        0.980 
##  4  155.  47.8  16.3    153.   1.27  0.0863  11.3  0.000460      0.121 
##  5  182.  46.9  17.3    161.  20.2   0.162    9.98 0.259         2.01  
##  6  208.  66.1  18.2    198.   9.76  0.158   11.0  0.0585        0.966 
##  7  153.  49.5  15.9    152.   0.745 0.143   11.3  0.000299      0.0731
##  8  163.  52    17.2    168.  -4.67  0.0916  11.3  0.00665      -0.445 
##  9  145.  48.9  16.6    158. -12.3   0.0724  10.9  0.0353       -1.16  
## 10  137.  38.4  16      137.   0.354 0.133   11.3  0.0000607     0.0345
## # … with 11 more rows
…
